Predator-Prey · Agents.jl
…
    equalaspect = true
)
figure

true
Now, lets run the simulation and collect some data.

sheep(a) = typeof(a) == Sheep
wolves(a) = typeof(a) == Wolf
grass(a) = typeof(a) == Grass && a.fully_grown
adata = [(sheep, count), (wolves, count), (grass, count)]
results, _ = run!(model, agent_step!, n_steps; adata)

(501×4 DataFrame
 Row │ step   count_sheep  count_wolves  count_grass
     │ Int64  Int64        Int64         Int64
─────┼───────────────────────────────────────────────
   1 │     0          100            50          203
   2 │     1           89            56          171
   3 │     2           75            60          156
   4 │     3           68            60          152
   5 │     4           61            66          147
   6 │     5           55            71          139
   7 │     6           52            70          134
   8 │     7           41            71          136
  ⋮  │   ⋮         ⋮            ⋮             ⋮
 495 │   494            0             0          400
 496 │   495            0             0          400
 497 │   496            0             0          400
 498 │   497            0             0          400
 499 │   498            0             0          400
 500 │   499            0             0          400
 501 │   500            0             0          400
                                     486 rows omitted, 0×0 DataFrame)
…
